Dates 1: Reconnaître et Savoir Formatter des Dates
…
6 Conversion de chaînes
de caractères en dates

Revenons à nos données PID et regardons comment R a classé nos
variables de date !

pid %>% 
  select(contains("date"))

## # A tibble: 112 × 5
##    date_debut_defaut date_fin_defaut date_debut_typique
##    <date>            <date>          <chr>             
##  1 2014-04-07        2014-04-17      07/04/2014        
##  2 2014-04-22        2014-04-27      22/04/2014        
##  3 2014-05-13        2014-05-13      13/05/2014        
##  4 2014-05-13        2014-05-13      13/05/2014        
##  5 2014-05-13        2014-05-13      13/05/2014        
##  6 2014-05-15        2014-05-26      15/05/2014        
##  7 2014-05-27        2014-05-27      27/05/2014        
##  8 2014-05-27        2014-05-27      27/05/2014        
##  9 2014-05-28        2014-06-16      28/05/2014        
## 10 2014-06-18        2014-06-27      18/06/2014        
## # ℹ 102 more rows
## # ℹ 2 more variables: date_debut_longue <chr>, …
…
